<?xml version="1.0" encoding="UTF-8" standalone="no"?>
<!-- Created with Inkscape (http://www.inkscape.org/) -->

<svg
   xmlns:dc="http://purl.org/dc/elements/1.1/"
   xmlns:cc="http://creativecommons.org/ns#"
   xmlns:rdf="http://www.w3.org/1999/02/22-rdf-syntax-ns#"
   xmlns:svg="http://www.w3.org/2000/svg"
   xmlns="http://www.w3.org/2000/svg"
   xmlns:xlink="http://www.w3.org/1999/xlink"
   xmlns:sodipodi="http://sodipodi.sourceforge.net/DTD/sodipodi-0.dtd"
   xmlns:inkscape="http://www.inkscape.org/namespaces/inkscape"
   id="svg2"
   version="1.1"
   inkscape:version="0.92.2 5c3e80d, 2017-08-06"
   width="2481"
   height="3503"
   sodipodi:docname="E24P03.svg"
   inkscape:export-filename="\user\webcomics\ep24_The-Unity-Tree\lang\ru\E24P03.png"
   inkscape:export-xdpi="95.800003"
   inkscape:export-ydpi="95.800003">
  <metadata
     id="metadata8">
    <rdf:RDF>
      <cc:Work
         rdf:about="">
        <dc:format>image/svg+xml</dc:format>
        <dc:type
           rdf:resource="http://purl.org/dc/dcmitype/StillImage" />
        <dc:title />
      </cc:Work>
    </rdf:RDF>
  </metadata>
  <defs
     id="defs6">
    <filter
       style="color-interpolation-filters:sRGB"
       id="filter4375-4-1-1-1-9-5-8"
       inkscape:label="Drop Shadow">
      <feFlood
         id="feFlood4377-7-9-0-8-1-7-3"
         flood-opacity="1"
         flood-color="rgb(200,55,55)"
         result="flood" />
      <feComposite
         id="feComposite4379-3-8-8-2-77-4-1"
         in2="SourceGraphic"
         in="flood"
         operator="in"
         result="composite1" />
      <feMorphology
         id="feMorphology4393-1-0-49-8-9-3-0"
         operator="dilate"
         radius="6.2000000000000002"
         result="result3" />
      <feComposite
         id="feComposite4385-9-5-7-0-8-8-7"
         in2="result3"
         in="SourceGraphic"
         operator="over"
         result="fbSourceGraphic" />
      <feColorMatrix
         result="fbSourceGraphicAlpha"
         in="fbSourceGraphic"
         values="0 0 0 -1 0 0 0 0 -1 0 0 0 0 -1 0 0 0 0 1 0"
         id="feColorMatrix4544" />
      <feTurbulence
         id="feTurbulence4546"
         type="fractalNoise"
         numOctaves="3"
         seed="37"
         baseFrequency="0.129 0.0050000000000000001"
         result="turbulence" />
      <feDisplacementMap
         id="feDisplacementMap4548"
         in2="turbulence"
         in="fbSourceGraphic"
         scale="6.6"
         yChannelSelector="G"
         xChannelSelector="R"
         result="fbSourceGraphic" />
      <feColorMatrix
         result="fbSourceGraphicAlpha"
         in="fbSourceGraphic"
         values="0 0 0 -1 0 0 0 0 -1 0 0 0 0 -1 0 0 0 0 1 0"
         id="feColorMatrix4670" />
      <feFlood
         id="feFlood4672"
         flood-opacity="1"
         flood-color="rgb(80,22,22)"
         result="flood"
         in="fbSourceGraphic" />
      <feComposite
         id="feComposite4674"
         in2="fbSourceGraphic"
         in="flood"
         operator="in"
         result="composite1" />
      <feGaussianBlur
         id="feGaussianBlur4676"
         in="composite1"
         stdDeviation="0"
         result="blur" />
      <feOffset
         id="feOffset4678"
         dx="6"
         dy="6"
         result="offset" />
      <feComposite
         id="feComposite4680"
         in2="offset"
         in="fbSourceGraphic"
         operator="over"
         result="composite2" />
    </filter>
    <filter
       inkscape:collect="always"
       style="color-interpolation-filters:sRGB"
       id="filter4210"
       x="-0.0015578248"
       width="1.0031157"
       y="-0.0045528179"
       height="1.0091056">
      <feGaussianBlur
         inkscape:collect="always"
         stdDeviation="0.2079876"
         id="feGaussianBlur4212" />
    </filter>
  </defs>
  <sodipodi:namedview
     pagecolor="#ffffff"
     bordercolor="#666666"
     borderopacity="1"
     objecttolerance="10"
     gridtolerance="10"
     guidetolerance="10"
     inkscape:pageopacity="0"
     inkscape:pageshadow="2"
     inkscape:window-width="1280"
     inkscape:window-height="971"
     id="namedview4"
     showgrid="false"
     inkscape:zoom="0.45202392"
     inkscape:cx="1159.3149"
     inkscape:cy="123.66318"
     inkscape:window-x="0"
     inkscape:window-y="0"
     inkscape:window-maximized="1"
     inkscape:current-layer="layer1"
     inkscape:snap-global="false" />
  <g
     inkscape:groupmode="layer"
     id="layer2"
     inkscape:label="artwork"
     sodipodi:insensitive="true">
    <image
       sodipodi:absref="/run/media/zveryok/Media/Work/Not Done/Translation/ep24/uk/../gfx_Pepper-and-Carrot_by-David-Revoy_E24P03.png"
       xlink:href="../gfx_Pepper-and-Carrot_by-David-Revoy_E24P03.png"
       y="0"
       x="0"
       id="image10"
       height="3503"
       width="2481" />
  </g>
  <g
     inkscape:groupmode="layer"
     id="layer3"
     inkscape:label="speechbubbles"
     style="display:inline">
    <path
       style="color:#000000;display:inline;overflow:visible;visibility:visible;fill:#ffffff;fill-opacity:1;fill-rule:nonzero;stroke:none;stroke-width:0.9855082px;marker:none;enable-background:accumulate"
       d="m 507.41363,1317.3928 c 0.29407,22.9688 -19.2473,42.5512 -111.70852,44.6155 -92.46119,2.0644 -111.58136,-28.9299 -112.17636,-42.2829 9.97028,-43.9619 68.29203,-56.2296 103.69085,-56.0964 22.84011,0.5158 87.29601,4.9457 102.05113,15.6148 14.75506,10.669 19.14525,19.6265 18.1429,38.149 z"
       id="path3365-0"
       inkscape:connector-curvature="0"
       sodipodi:nodetypes="cccccc" />
    <path
       style="color:#000000;display:inline;overflow:visible;visibility:visible;fill:#ffffff;fill-opacity:1;fill-rule:nonzero;stroke:none;stroke-width:1.21718848px;marker:none;enable-background:accumulate"
       d="m 285.54784,1392.7806 c -2.19065,-10.1237 37.24068,-63.4419 170.86919,-56.6927 133.62852,6.7491 159.91612,45.2192 158.82074,58.7175 -1.09534,13.4982 -33.95468,34.4205 -53.67045,37.7952 -19.71564,3.3744 -71.19549,11.4734 -104.05502,8.7738 -32.85937,-2.6998 -133.62845,-16.198 -153.34418,-28.3465 -19.71565,-12.1484 -16.42968,-17.5477 -18.62028,-20.2473 z"
       id="path3365"
       inkscape:connector-curvature="0" />
    <path
       style="fill:#ffffff;fill-opacity:1;fill-rule:evenodd;stroke:#fff6d5;stroke-width:0.95747077px;stroke-linecap:butt;stroke-linejoin:miter;stroke-opacity:1"
       d="m 1818.9396,860.18928 76.231,-57.65961 145.8713,-3.35 97.8739,4.87093 156.6083,9.92559 58.847,29.04091 18.0971,65.21237 -28.1397,69.42715 -83.4288,40.36958 -135.1968,3.2999 -166.8168,2.7966 -119.2729,-25.46943 -55.0079,-55.85919 0.6446,-58.45987 z"
       id="path5098"
       inkscape:connector-curvature="0"
       sodipodi:nodetypes="ccccccccccccccc" />
    <path
       style="color:#000000;display:inline;overflow:visible;visibility:visible;fill:#ffffff;fill-opacity:1;fill-rule:nonzero;stroke:none;stroke-width:1.3175981px;marker:none;enable-background:accumulate"
       d="m 164.51303,204.57055 c -43.68061,-12.39782 -58.96878,-23.91004 -54.60054,-30.99455 4.36802,-7.08441 43.6804,-43.39235 91.72879,-47.82016 48.04862,-4.4278 172.53785,-9.74112 200.93028,-5.31331 28.39244,4.42772 109.20128,33.65124 109.20128,48.70567 0,15.05452 -15.28816,44.27795 -58.96875,53.13348 -43.6804,8.8556 -235.87466,14.169 -288.29106,-17.71113 z"
       id="path3349"
       inkscape:connector-curvature="0" />
    <path
       style="fill:#ffffff;fill-rule:evenodd;stroke:none;stroke-width:1.01304638px;stroke-linecap:butt;stroke-linejoin:miter;stroke-opacity:1"
       d="m 118.80883,294.64242 c 9.36049,-29.55397 34.56736,-51.97741 62.00112,-66.94645 13.05556,-7.22687 27.97833,-12.52288 43.24873,-11.12984 15.17027,0.83238 29.98789,5.80192 45.32597,4.07581 18.65067,-0.57014 37.62878,-3.05751 56.06531,0.49673 16.38939,3.87819 33.27516,5.88675 50.18789,6.00321 11.93141,-2.46164 22.84942,4.09942 33.50487,8.02367 9.5659,4.2389 19.33663,8.68618 27.37142,15.24309 7.40245,9.20446 16.2659,17.21217 23.7548,26.33472 4.90018,4.98722 4.42936,11.87591 4.20362,18.25126 -0.63642,13.0554 -1.71416,26.31683 -5.71437,38.89455 -2.39382,7.98516 -11.24181,10.6278 -18.04044,14.29714 -16.0866,7.74595 -33.16848,13.61993 -48.52115,22.73531 -15.21007,4.66743 -31.37416,2.48428 -46.9728,1.77891 -13.07061,-1.38937 -26.21893,-3.32683 -39.40186,-1.71111 -16.77875,1.18236 -33.50655,4.24385 -50.34531,3.8517 -21.09435,-2.6909 -41.29701,-9.31658 -61.73923,-14.63155 -18.34035,-4.68465 -35.05609,-13.49369 -51.09527,-22.91716 -8.56752,-5.35124 -17.63727,-11.57123 -20.66087,-21.4329 -2.47862,-6.79062 -3.06266,-14.0617 -3.17243,-21.21709 z"
       id="path4365"
       inkscape:connector-curvature="0" />
    <path
       style="fill:#ffffff;stroke:none;stroke-width:1"
       d="m 255.74611,486.59733 c -23.27266,-23.83534 -20.48879,-35.75842 -16.41183,-49.14873 4.07679,-13.39047 8.97204,-25.16536 5.766,-32.83447 -3.20588,-7.66895 -10.93987,-14.22751 -17.30992,-18.09351 -6.37002,-3.86612 0.37438,-12.96194 1.66184,-22.47971 1.28739,-9.51792 -6.96124,-58.99857 -6.96124,-58.99857 0,0 -18.46628,33.89095 -21.4884,46.01372 -3.02229,12.1226 -4.17691,16.54274 -4.30975,21.64038 -0.13267,5.09782 1.0675,17.51673 6.55388,23.65787 5.48637,6.14113 13.38767,8.34016 18.4974,11.72826 5.10986,3.388 3.10789,14.22244 1.75318,24.94735 -1.3548,10.72489 -0.91888,18.61083 7.73931,32.21546 7.42161,11.66179 24.50953,21.35195 24.50953,21.35195 z"
       id="path3023-2"
       inkscape:connector-curvature="0"
       sodipodi:nodetypes="csssscssssssc" />
    <text
       xml:space="preserve"
       style="font-style:normal;font-variant:normal;font-weight:normal;font-stretch:normal;font-size:10.6579771px;line-height:0.01%;font-family:Arial;-inkscape-font-specification:Arial;letter-spacing:0px;word-spacing:0px;fill:#b8764f;fill-opacity:1;stroke:none;stroke-width:0.99999994"
       x="146.31161"
       y="792.88184"
       id="text969"
       transform="matrix(0.93043638,-0.40475701,0,1.0747645,0,0)"><tspan
         sodipodi:role="line"
         x="146.31161"
         y="792.88184"
         id="tspan967"
         style="fill:#b8764f;fill-opacity:1;stroke-width:0.99999994"><tspan
           x="146.31161"
           y="792.88184"
           style="font-style:normal;font-variant:normal;font-weight:normal;font-stretch:normal;font-size:42.63190842px;line-height:1.25;font-family:Lavi;-inkscape-font-specification:Lavi;fill:#b8764f;fill-opacity:1;stroke-width:0.99999994"
           id="tspan965">Шррр</tspan></tspan></text>
    <path
       style="fill:#ffffff;fill-rule:evenodd;stroke:none;stroke-width:1.02424872px;stroke-linecap:butt;stroke-linejoin:miter;stroke-opacity:1"
       d="m 355.48537,1538.3335 c 40.10463,1.0808 97.04323,-16.9021 60.50838,-62.7797 65.55891,30.4347 116.24881,21.8788 213.04814,-36.3343 -1.71009,74.1599 43.08565,64.9016 82.74407,48.6111 -37.03544,26.8583 34.81216,37.3916 72.8884,36.8043 -75.37485,57.8457 -31.66113,72.7098 1.81731,91.268 -80.25971,-10.8342 -58.41098,18.4652 -66.26882,36.0882 -71.22529,-35.2829 -119.60195,-23.502 -155.18757,14.6253 -22.13044,-18.5697 -32.22117,-58.8104 -101.49258,7.4724 22.64877,-55.2822 -12.9708,-47.7448 -69.05048,-18.1491 7.49336,-18.8184 59.44058,-49.5508 -32.08341,-41.8319 55.74177,-20.4271 65.60719,-44.6722 -6.92344,-75.7743 z"
       id="path4584"
       inkscape:connector-curvature="0"
       sodipodi:nodetypes="cccccccccccc" />
    <path
       style="color:#000000;display:inline;overflow:visible;visibility:visible;fill:#ffffff;fill-opacity:1;fill-rule:nonzero;stroke:none;stroke-width:1px;marker:none;enable-background:accumulate"
       d="m 811.85574,1691.333 c -13.81416,11.4352 -28.07371,23.5268 -45.37048,28.6126 -4.94334,1.3415 -10.13724,2.383 -15.17734,1.997 -5.10914,-1.5938 -7.95117,-6.8567 -8.29553,-12.0924 -1.01963,-7.5052 0.9934,-15.9414 -3.08945,-22.6298 -3.09088,-4.7908 -9.22063,-4.9463 -14.32973,-5.5392 -13.06169,-1.2494 -26.43419,-0.6991 -39.15272,-4.0712 -14.5982,-2.8393 -29.71536,-6.9131 -40.9249,-17.0755 -4.36621,-4.0993 -8.34623,-9.031 -9.60144,-15.1479 -3.92579,-15.5158 0.93662,-33.8932 13.48534,-44.6997 8.61929,-6.1452 22.04985,-4.5663 27.3382,4.6491 2.86475,4.8194 1.99218,10.9537 -0.28824,15.9992 -2.51679,10.0054 0.79504,20.6754 7.64932,27.7427 5.55929,5.9304 12.9599,9.9511 20.86509,11.8157 9.98256,5.4504 21.83723,2.9201 32.79926,2.915 5.00527,0.073 10.31159,0.497 14.65191,3.0035 5.29618,5.1051 4.90278,13.2996 3.78431,20.2236 -0.97364,7.164 -2.89521,15.3934 1.47098,21.6216 2.44167,4.7598 8.43508,2.4997 12.74015,2.4695 13.91862,-1.9388 27.23033,-8.2543 38.53704,-16.9232 1.01948,-0.9054 1.96415,-1.8854 2.90823,-2.8706 z"
       id="path4496"
       inkscape:connector-curvature="0"
       inkscape:transform-center-x="15.738959"
       inkscape:transform-center-y="-33.216744" />
    <text
       xml:space="preserve"
       style="font-style:normal;font-variant:normal;font-weight:normal;font-stretch:normal;font-size:66.33062744px;line-height:0.01%;font-family:Arial;-inkscape-font-specification:Arial;letter-spacing:0.01132977px;word-spacing:0px;display:inline;fill:#ffffff;fill-opacity:1;stroke:#fc5959;stroke-width:3.02600002;stroke-miterlimit:4;stroke-dasharray:none;stroke-opacity:1"
       x="2100.5652"
       y="1099.4115"
       id="text1105"
       transform="matrix(1.0092628,0.17044443,-0.63347357,0.88384115,0,0)"><tspan
         sodipodi:role="line"
         x="2127.418"
         y="1099.4115"
         id="tspan1103"
         style="font-style:normal;font-variant:normal;font-weight:normal;font-stretch:normal;font-family:Lavi;-inkscape-font-specification:Lavi;fill:#ffffff;fill-opacity:1;stroke:#fc5959;stroke-width:3.02600002;stroke-miterlimit:4;stroke-dasharray:none;stroke-opacity:1"><tspan
           x="2127.418"
           y="1099.4115"
           style="font-style:normal;font-variant:normal;font-weight:normal;font-stretch:normal;font-size:54.77391434px;font-family:Lavi;-inkscape-font-specification:Lavi;fill:#ffffff;fill-opacity:1;stroke:#fc5959;stroke-width:3.02600002;stroke-miterlimit:4;stroke-dasharray:none;stroke-opacity:1"
           id="tspan1095">УІІІНЬ</tspan></tspan></text>
    <path
       style="color:#000000;display:inline;overflow:visible;visibility:visible;fill:#ffffff;fill-opacity:1;fill-rule:nonzero;stroke:none;stroke-width:1.16138053px;marker:none;enable-background:accumulate"
       d="m 835.29214,2415.5587 c -94.17291,-4.2799 -228.73836,-12.6414 -257.58272,-57.9982 -28.84427,-45.357 13.93645,-121.0551 67.40578,-148.4709 53.46912,-27.4157 143.28282,-37.48 224.99493,-31.8186 81.71215,5.6614 191.58707,0.079 218.72917,42.6566 27.1423,42.5778 66.4817,118.092 -7.87,157.805 -84.72885,45.2556 -245.49782,38.0479 -245.67716,37.8261 z"
       id="path3970-1"
       inkscape:connector-curvature="0"
       sodipodi:nodetypes="ccccssc" />
    <path
       style="opacity:1;fill:#ffffff;fill-rule:evenodd;stroke:none;stroke-width:1px;stroke-linecap:butt;stroke-linejoin:miter;stroke-opacity:1"
       d="m 740.99257,2678.9224 c 81.33155,-3.7713 135.73985,-70.9891 126.35903,-170.042 -0.7356,-13.0761 -2.22429,-73.8821 -3.69549,-94.3134 -1.4712,-20.4314 -28.77037,-38.6153 -26.56347,-14.9149 2.2069,23.7004 2.37118,102.019 6.25838,120.7638 11.59073,90.9486 -48.83803,137.4097 -102.35845,158.5065 z"
       id="path4272"
       inkscape:connector-curvature="0"
       sodipodi:nodetypes="ccsscc" />
    <path
       style="fill:#ffffff;fill-opacity:1;stroke:none;stroke-width:1.09365284"
       d="m 1568.814,2377.232 c 28.4481,-92.922 34.8875,-128.634 364.2988,-127.8569 288.1587,0.6797 356.8362,45.8902 376.504,106.9663 19.9849,41.9492 63.2814,126.6072 -109.916,173.4858 -173.1978,46.8785 -520.5161,26.7002 -576.1966,-13.2242 -61.0035,-46.1713 -52.7798,-108.1901 -54.6902,-139.371 z"
       id="path3238"
       inkscape:connector-curvature="0"
       sodipodi:nodetypes="cscccc" />
    <path
       style="fill:#ffffff;stroke:none;stroke-width:1"
       d="m 1667.7291,2850.623 c -28.0273,-50.6036 -13.2215,-93.7285 1.8965,-108.2057 15.1178,-14.4771 50.6778,-42.8284 50.9445,-56.9806 0.2668,-14.1522 -15.4826,-50.9134 -21.5889,-63.5846 -7.7887,-16.1627 79.2563,-67.9419 87.5629,-79.9355 8.3067,-11.9938 19.7346,-62.3727 19.7346,-62.3727 0,0 -50.6027,28.0238 -63.2766,41.8377 -12.6739,13.8139 -6.0044,5.2923 -9.6101,12.305 -3.6058,7.0127 -71.1709,62.8269 -66.9634,77.2471 4.2073,14.4202 23.4056,61.9081 28.8814,72.067 5.4761,10.1588 -29.6375,37.3716 -38.8524,50.9878 -9.2149,13.6163 -19.5808,32.142 -19.0015,56.4166 0.5543,23.2298 30.273,60.2179 30.273,60.2179 z"
       id="path3023"
       inkscape:connector-curvature="0"
       sodipodi:nodetypes="csssscssssssc" />
    <path
       style="fill:#ffffff;fill-rule:evenodd;stroke:none;stroke-width:1px;stroke-linecap:butt;stroke-linejoin:miter;stroke-opacity:1"
       d="m 1627.9933,177.23146 -52.4846,76.91879 11.7799,111.37678 149.0449,30.77218 303.4128,-15.38609 79.8456,-82.05914 21.2921,-97.44521 -55.8919,-94.88087 -379.463,6.23269 z"
       id="path5054"
       inkscape:connector-curvature="0"
       sodipodi:nodetypes="cccccccccc" />
    <path
       style="color:#000000;display:inline;overflow:visible;visibility:visible;fill:#ffffff;fill-opacity:1;fill-rule:nonzero;stroke:none;stroke-width:1.25863826px;marker:none;enable-background:accumulate"
       d="m 2188.3274,390.7352 c -75.2699,-1.15715 -107.0586,-14.80085 -125.6225,-35.17732 -18.5638,-20.37652 -3.145,-53.27342 29.4696,-64.92189 32.6145,-11.64849 76.7409,-12.829 127.8182,-11.28681 92.2938,2.78663 156.2196,11.56823 163.4463,43.16595 7.1754,31.37276 1.4157,48.0176 -66.4275,62.95799 -63.8661,8.59876 -128.6841,5.26208 -128.6841,5.26208 z"
       id="path3970"
       inkscape:connector-curvature="0"
       sodipodi:nodetypes="cccsscc" />
    <path
       style="fill:#ffffff;fill-opacity:1;fill-rule:evenodd;stroke:#fff6d5;stroke-width:0.98188949px;stroke-linecap:butt;stroke-linejoin:miter;stroke-opacity:1"
       d="m 1947.5632,431.88715 -26.8622,88.23776 40.5606,79.18515 197.1026,-4.38258 146.454,-1.97479 77.0174,-33.95568 -2.1046,-136.11768 -62.6821,-43.68399 -148.6536,-9.3923 -138.4292,9.87387 z"
       id="path5075"
       inkscape:connector-curvature="0"
       sodipodi:nodetypes="ccccccccccc" />
    <path
       style="color:#000000;display:inline;overflow:visible;visibility:visible;fill:#ffffff;fill-opacity:1;fill-rule:nonzero;stroke:none;stroke-width:1.40434003px;marker:none;enable-background:accumulate"
       d="m 2109.3376,725.14275 c -108.2339,-1.42561 -153.9439,-18.2346 -180.6378,-43.33833 -26.6936,-25.10381 -4.5222,-65.63267 42.3755,-79.98355 46.8979,-14.35089 110.3488,-15.80527 183.795,-13.90531 132.713,3.43313 224.6345,14.25203 235.026,53.18031 10.3178,38.65111 2.0356,59.15751 -95.5187,77.56401 -91.8357,10.59365 -185.04,6.48287 -185.04,6.48287 z"
       id="path3970-36"
       inkscape:connector-curvature="0"
       sodipodi:nodetypes="cccsscc" />
    <path
       style="fill:#ffffff;fill-rule:evenodd;stroke:none;stroke-width:1.0173924px;stroke-linecap:butt;stroke-linejoin:miter;stroke-opacity:1"
       d="m 1968.3057,729.12617 c 30.3281,2.37711 74.7384,-8.86576 50.2194,-44.65472 47.5917,25.3572 86.612,20.93055 164.0271,-18.88537 -6.4333,55.47661 28.1674,50.29343 59.3605,39.64259 -29.9367,18.66829 23.8009,29.36578 52.707,30.41443 -61.1479,40.37812 -29.0385,53.21963 -4.9442,68.4278 -60.0938,-11.25186 -45.5599,11.54652 -52.7376,24.43851 -51.5515,-29.21 -89.0416,-22.27747 -118.6596,4.88772 -15.4907,-14.7732 -20.3531,-45.30676 -77.4584,1.62921 20.9991,-40.51926 -6.5259,-36.26621 -51.0897,-16.29228 6.9843,-13.8014 48.4938,-34.78842 -21.4245,-32.58474 43.6723,-13.12034 52.8304,-30.8935 0,-57.02315 z"
       id="path4584-1"
       inkscape:connector-curvature="0"
       sodipodi:nodetypes="cccccccccccc" />
    <path
       style="fill:#ffffff;fill-opacity:1;fill-rule:evenodd;stroke:none;stroke-width:1.11112285px;stroke-linecap:butt;stroke-linejoin:miter;stroke-opacity:1"
       d="m 2175.0079,975.56231 127.3545,24.0207 21.2258,79.56829 -66.7794,46.5596 -217.4009,7.6239 -283.2822,0.02 -75.8413,-31.6838 1.6328,-64.5554 88.1685,-49.54259 207.3594,-24.0205 z"
       id="path5161"
       inkscape:connector-curvature="0"
       sodipodi:nodetypes="ccccccccccc" />
    <path
       style="color:#000000;display:inline;overflow:visible;visibility:visible;fill:#ffffff;fill-opacity:1;fill-rule:nonzero;stroke:none;stroke-width:1.12091732px;marker:none;enable-background:accumulate"
       d="m 481.39965,1531.4737 c -91.4605,-1.1438 -130.08678,-14.6309 -152.64382,-34.7733 -22.55683,-20.1425 -3.82143,-52.6616 35.80842,-64.1763 39.62996,-11.5147 93.2478,-12.6816 155.3117,-11.1573 112.14612,2.7548 189.82238,11.4355 198.60345,42.6704 8.71882,31.0124 1.72015,47.4661 -80.71593,62.2349 -77.60367,8.5 -156.36382,5.2016 -156.36382,5.2016 z"
       id="path3970-36-4"
       inkscape:connector-curvature="0"
       sodipodi:nodetypes="cccsscc" />
    <path
       style="color:#000000;display:inline;overflow:visible;visibility:visible;fill:#ffffff;fill-opacity:1;fill-rule:nonzero;stroke:none;stroke-width:1px;marker:none;enable-background:accumulate"
       d="m 1663.8731,2265.1373 c -3.5165,-25.3235 8.9906,-44.1378 16.0961,-53.122 7.1056,-8.9843 55.3942,-32.6555 73.7381,-34.6185 18.3439,-1.9629 96.0697,8.2236 111.5859,25.0671 29.6665,41.0213 18.474,80.0335 -42.9956,103.2882 -11.6372,4.3293 -45.7148,10.0318 -56.9894,10.2104 -11.2746,0.1784 -99.3687,-8.8986 -101.4351,-50.8252 z"
       id="path3357"
       inkscape:connector-curvature="0"
       sodipodi:nodetypes="ccccccc" />
    <text
       xml:space="preserve"
       style="font-style:normal;font-variant:normal;font-weight:normal;font-stretch:normal;line-height:0%;font-family:Lavi;-inkscape-font-specification:Lavi;text-align:center;letter-spacing:0px;word-spacing:0px;text-anchor:middle;display:inline;opacity:0.35800003;fill:#000000;fill-opacity:1;stroke:none;stroke-width:1.45996165;filter:url(#filter4210)"
       x="1174.0292"
       y="1085.962"
       id="text4246-5"
       transform="matrix(0.59859266,-0.06157078,0.00633293,0.63548918,541.82445,2356.5786)"><tspan
         sodipodi:role="line"
         style="font-style:normal;font-variant:normal;font-weight:normal;font-stretch:normal;font-size:40.68669891px;line-height:1.25;font-family:Fondamento;-inkscape-font-specification:Fondamento;stroke:#000000;stroke-width:4.95442009;stroke-miterlimit:4;stroke-dasharray:none;stroke-opacity:1"
         x="1174.0292"
         y="1085.962"
         id="tspan4209">КОМОНОВИНИ</tspan></text>
    <path
       style="color:#000000;display:inline;overflow:visible;visibility:visible;fill:#ffffff;fill-opacity:1;fill-rule:nonzero;stroke:none;stroke-width:1px;marker:none;enable-background:accumulate"
       d="m 1589.7943,157.61754 c -8.8614,-24.36709 -33.8637,-38.6263 -43.4322,-37.17458 -9.5684,1.45169 37.9222,-18.88289 66.1459,18.41098 28.2236,37.29379 -9.2438,35.86676 -9.2438,35.86676 z"
       id="path4035-5"
       inkscape:connector-curvature="0" />
    <path
       style="color:#000000;display:inline;overflow:visible;visibility:visible;fill:#ffffff;fill-opacity:1;fill-rule:nonzero;stroke:none;stroke-width:1px;marker:none;enable-background:accumulate"
       d="m 1316.9724,411.08671 c 59.7698,37.7282 26.9131,115.63535 -8.523,127.33445 38.815,-5.69719 107.6543,-77.73022 42.1661,-140.88089 -140.721,-135.6979 -91.9073,-21.1982 -91.9073,-21.1982 z"
       id="path4035"
       inkscape:connector-curvature="0"
       sodipodi:nodetypes="ccscc" />
    <path
       style="color:#000000;display:inline;overflow:visible;visibility:visible;fill:#ffffff;fill-opacity:1;fill-rule:nonzero;stroke:none;stroke-width:1.07367349px;marker:none;enable-background:accumulate"
       d="m 1112.6921,90.332709 c 83.3367,5.524204 338.767,-9.754773 325.2971,184.067881 -15.2624,219.61551 -49.4678,207.66296 -349.7095,210.76368 C 969.43963,486.39158 730.71584,482.44103 722.98019,368.55665 665.94776,10.703599 995.21183,94.6313 1112.6921,90.332709 Z"
       id="path4546-6"
       inkscape:connector-curvature="0"
       sodipodi:nodetypes="csscc" />
    <path
       style="color:#000000;display:inline;overflow:visible;visibility:visible;fill:#ffffff;fill-opacity:1;fill-rule:nonzero;stroke:none;stroke-width:1.23743439px;marker:none;enable-background:accumulate"
       d="m 1603.1577,218.81569 c -72.2705,4.52699 -82.9245,-16.41582 -77.0834,-44.57794 7.3914,-35.63688 40.8892,-42.89308 85.1879,-41.5388 49.1997,0.26824 73.5251,7.0858 79.0271,22.20114 8.6871,23.86573 9.3102,47.69261 -16.5628,58.46055 -32.9494,8.01405 -70.5688,5.45505 -70.5688,5.45505 z"
       id="path3970-6"
       inkscape:connector-curvature="0"
       sodipodi:nodetypes="cscscc" />
  </g>
  <g
     inkscape:groupmode="layer"
     id="layer1"
     inkscape:label="txt"
     style="display:inline">
    <text
       xml:space="preserve"
       style="font-style:normal;font-variant:normal;font-weight:normal;font-stretch:normal;line-height:0%;font-family:Lavi;-inkscape-font-specification:Lavi;text-align:center;letter-spacing:0px;word-spacing:0px;text-anchor:middle;fill:#000000;fill-opacity:1;stroke:none"
       x="318.49622"
       y="188.50803"
       id="text4246"><tspan
         sodipodi:role="line"
         style="font-size:44px;line-height:1.25"
         x="318.49622"
         y="188.50803"
         id="tspan135">Якщо тільки ...</tspan></text>
    <text
       xml:space="preserve"
       style="font-style:normal;font-variant:normal;font-weight:normal;font-stretch:normal;line-height:0%;font-family:Lavi;-inkscape-font-specification:Lavi;text-align:center;letter-spacing:0px;word-spacing:0px;text-anchor:middle;fill:#000000;fill-opacity:1;stroke:none"
       x="298.8338"
       y="273.57104"
       id="text4246-3"><tspan
         sodipodi:role="line"
         style="font-size:45px;line-height:1.25"
         x="298.8338"
         y="273.57104"
         id="tspan137">Здається,</tspan><tspan
         sodipodi:role="line"
         style="font-size:45px;line-height:1.25"
         x="298.8338"
         y="331.21085"
         id="tspan142">пригадую...</tspan></text>
    <text
       xml:space="preserve"
       style="font-style:normal;font-variant:normal;font-weight:normal;font-stretch:normal;line-height:0%;font-family:Lavi;-inkscape-font-specification:Lavi;text-align:center;letter-spacing:0px;word-spacing:0px;text-anchor:middle;fill:#000000;fill-opacity:1;stroke:none"
       x="1072.6111"
       y="158.58156"
       id="text4246-3-7"><tspan
         sodipodi:role="line"
         style="font-size:44px;line-height:1.25"
         x="1072.6111"
         y="158.58156"
         id="tspan874">Так! В розділі по</tspan><tspan
         sodipodi:role="line"
         style="font-size:44px;line-height:1.25"
         x="1072.6111"
         y="214.94049"
         id="tspan167">&quot;Заклинанням Руйнування&quot;</tspan><tspan
         sodipodi:role="line"
         style="font-size:44px;line-height:1.25"
         x="1079.615"
         y="269.94049"
         id="tspan153">Тимʼяна рекомендує </tspan><tspan
         sodipodi:role="line"
         style="font-size:44px;line-height:1.25"
         x="1079.615"
         y="324.94049"
         id="tspan171">застосовувати згорнуті </tspan><tspan
         sodipodi:role="line"
         style="font-size:44px;line-height:1.25"
         x="1072.6111"
         y="381.29941"
         id="tspan1457">простори.</tspan><tspan
         sodipodi:role="line"
         style="font-size:44px;line-height:1.25"
         x="1072.6111"
         y="437.65836"
         id="tspan782">Але ці попередження ...</tspan></text>
    <text
       xml:space="preserve"
       style="font-style:normal;font-variant:normal;font-weight:normal;font-stretch:normal;line-height:0%;font-family:Lavi;-inkscape-font-specification:Lavi;text-align:center;letter-spacing:0px;word-spacing:0px;text-anchor:middle;fill:#000000;fill-opacity:1;stroke:none"
       x="572.64856"
       y="1586.9316"
       id="text4246-3-7-6"><tspan
         sodipodi:role="line"
         style="font-size:45px;line-height:1.25"
         x="572.64856"
         y="1586.9316"
         id="tspan4386">Приступимо!</tspan></text>
    <text
       xml:space="preserve"
       style="font-style:normal;font-variant:normal;font-weight:normal;font-stretch:normal;line-height:0%;font-family:Lavi;-inkscape-font-specification:Lavi;text-align:center;letter-spacing:0px;word-spacing:0px;text-anchor:middle;fill:#000000;fill-opacity:1;stroke:none"
       x="850.77002"
       y="2262.0481"
       id="text4246-3-7-6-1"><tspan
         sodipodi:role="line"
         style="font-size:44px;line-height:1.25"
         x="850.77002"
         y="2262.0481"
         id="tspan4390">Здається, Перчинка</tspan><tspan
         sodipodi:role="line"
         style="font-size:44px;line-height:1.25"
         x="850.77002"
         y="2317.0481"
         id="tspan224">створила згорнутий</tspan><tspan
         sodipodi:role="line"
         style="font-size:44px;line-height:1.25"
         x="850.77002"
         y="2373.407"
         id="tspan226">простір.</tspan></text>
    <text
       xml:space="preserve"
       style="font-style:normal;font-variant:normal;font-weight:normal;font-stretch:normal;line-height:0%;font-family:Lavi;-inkscape-font-specification:Lavi;letter-spacing:0px;word-spacing:0px;fill:#ffffff;fill-opacity:1;stroke:#c83737;stroke-width:0.99236238;stroke-miterlimit:4;stroke-dasharray:none;stroke-opacity:1;filter:url(#filter4375-4-1-1-1-9-5-8)"
       x="787.65729"
       y="1584.5073"
       id="text4580-6-0"
       transform="matrix(0.83434398,-0.14790328,-0.40858731,0.88612324,1099.912,885.91633)"><tspan
         sodipodi:role="line"
         id="tspan4582-1-1"
         x="787.65729"
         y="1584.5073"
         style="font-size:70px;line-height:1.25;fill:#ffffff;fill-opacity:1;stroke:#c83737;stroke-opacity:1"><tspan
           style="font-size:93.14950562px;fill:#ffffff;fill-opacity:1;stroke:#c83737;stroke-opacity:1"
           id="tspan4315-8">ШУОМП!</tspan><tspan
           style="font-size:114.73223114px;fill:#ffffff;fill-opacity:1;stroke:#c83737;stroke-opacity:1"
           id="tspan4313-2">!</tspan></tspan></text>
    <text
       xml:space="preserve"
       style="font-style:normal;font-variant:normal;font-weight:normal;font-stretch:normal;line-height:0%;font-family:Lavi;-inkscape-font-specification:Lavi;text-align:center;letter-spacing:0px;word-spacing:0px;text-anchor:middle;fill:#000000;fill-opacity:1;stroke:none"
       x="1775.6528"
       y="2253.0674"
       id="text4246-3-7-6-1-7"><tspan
         sodipodi:role="line"
         style="font-size:44px;line-height:1.25"
         x="1775.6528"
         y="2253.0674"
         id="tspan1274">Добре!</tspan></text>
    <text
       xml:space="preserve"
       style="font-style:normal;font-variant:normal;font-weight:normal;font-stretch:normal;line-height:0%;font-family:Lavi;-inkscape-font-specification:Lavi;text-align:center;letter-spacing:0px;word-spacing:0px;text-anchor:middle;fill:#483200;fill-opacity:1;stroke:none;stroke-width:1.79999995;stroke-miterlimit:4;stroke-dasharray:none"
       x="2342.3762"
       y="411.1218"
       id="text4246-3-7-3"
       transform="skewX(-20)"><tspan
         sodipodi:role="line"
         style="font-size:45px;line-height:1.25;fill:#483200;fill-opacity:1;stroke-width:1.79999995;stroke-miterlimit:4;stroke-dasharray:none"
         x="2342.3762"
         y="414.60959"
         id="tspan875-6" /><tspan
         sodipodi:role="line"
         style="font-size:44px;line-height:1.25;fill:#080600;fill-opacity:1;stroke-width:1.79999995;stroke-miterlimit:4;stroke-dasharray:none"
         x="2342.3762"
         y="414.60959"
         id="tspan895-2" /><tspan
         sodipodi:role="line"
         style="font-size:44px;line-height:1.25;fill:#080600;fill-opacity:1;stroke-width:1.79999995;stroke-miterlimit:4;stroke-dasharray:none"
         x="2342.3762"
         y="414.60959"
         id="tspan4769" /><tspan
         sodipodi:role="line"
         style="font-size:44px;line-height:1.25;fill:#080600;fill-opacity:1;stroke-width:1.79999995;stroke-miterlimit:4;stroke-dasharray:none"
         x="2342.3762"
         y="451.4104"
         id="tspan885-2">&quot;Задля безпеки</tspan><tspan
         sodipodi:role="line"
         style="font-size:44px;line-height:1.25;fill:#080600;fill-opacity:1;stroke-width:1.79999995;stroke-miterlimit:4;stroke-dasharray:none"
         x="2342.3762"
         y="506.4104"
         id="tspan197"><tspan
   style="font-size:44px;fill:#080600;fill-opacity:1;stroke:#000000;stroke-width:1.79999995;stroke-miterlimit:4;stroke-dasharray:none;stroke-opacity:1"
   id="tspan1025">НЕ</tspan> відміняй</tspan><tspan
         sodipodi:role="line"
         style="font-size:44px;line-height:1.25;fill:#080600;fill-opacity:1;stroke-width:1.79999995;stroke-miterlimit:4;stroke-dasharray:none"
         x="2342.3762"
         y="562.76935"
         id="tspan143">результати .&quot;</tspan></text>
    <text
       xml:space="preserve"
       style="font-style:normal;font-variant:normal;font-weight:normal;font-stretch:normal;line-height:0%;font-family:Lavi;-inkscape-font-specification:Lavi;text-align:center;letter-spacing:0px;word-spacing:0px;text-anchor:middle;fill:#000000;fill-opacity:1;stroke:none;stroke-width:1.79999995;stroke-miterlimit:4;stroke-dasharray:none"
       x="1956.1534"
       y="134.14406"
       id="text4246-3-7-3-2"
       transform="skewX(-20)"><tspan
         sodipodi:role="line"
         style="font-size:45px;line-height:1.25;fill:#000000;fill-opacity:1;stroke-width:1.79999995;stroke-miterlimit:4;stroke-dasharray:none"
         x="1956.1534"
         y="137.63187"
         id="tspan875-6-6" /><tspan
         sodipodi:role="line"
         style="font-size:44px;line-height:1.25;fill:#000000;fill-opacity:1;stroke-width:1.79999995;stroke-miterlimit:4;stroke-dasharray:none"
         x="1956.1534"
         y="137.63187"
         id="tspan895-2-1" /><tspan
         sodipodi:role="line"
         style="font-size:44px;line-height:1.25;fill:#000000;fill-opacity:1;stroke-width:1.79999995;stroke-miterlimit:4;stroke-dasharray:none"
         x="1956.1534"
         y="137.63187"
         id="tspan4769-8" /><tspan
         sodipodi:role="line"
         style="font-size:44px;line-height:1.25;fill:#000000;fill-opacity:1;stroke-width:1.79999995;stroke-miterlimit:4;stroke-dasharray:none"
         x="1956.1534"
         y="175.34833"
         id="tspan887-7-2">&quot;<tspan
   style="fill:#000000;fill-opacity:1;stroke:#000000;stroke-width:1.79999995;stroke-miterlimit:4;stroke-dasharray:none;stroke-opacity:1;font-size:44px"
   id="tspan1025-9">НЕ</tspan> витрачай</tspan><tspan
         sodipodi:role="line"
         style="font-size:44px;line-height:1.25;fill:#000000;fill-opacity:1;stroke-width:1.79999995;stroke-miterlimit:4;stroke-dasharray:none"
         x="1956.1534"
         y="231.59833"
         id="tspan4842">усю свою Рею при</tspan><tspan
         sodipodi:role="line"
         style="font-size:44px;line-height:1.25;fill:#000000;fill-opacity:1;stroke-width:1.79999995;stroke-miterlimit:4;stroke-dasharray:none"
         x="1956.1534"
         y="287.84833"
         id="tspan175">створенні згорнутого</tspan><tspan
         sodipodi:role="line"
         style="font-size:44px;line-height:1.25;fill:#000000;fill-opacity:1;stroke-width:1.79999995;stroke-miterlimit:4;stroke-dasharray:none"
         x="1956.1534"
         y="345.48813"
         id="tspan183">простору.&quot;</tspan></text>
    <text
       xml:space="preserve"
       style="font-style:normal;font-variant:normal;font-weight:normal;font-stretch:normal;line-height:0%;font-family:Lavi;-inkscape-font-specification:Lavi;text-align:center;letter-spacing:0px;word-spacing:0px;text-anchor:middle;fill:#483200;fill-opacity:1;stroke:none;stroke-width:1.29999995;stroke-miterlimit:4;stroke-dasharray:none"
       x="2402.0383"
       y="825.26971"
       id="text4246-3-7-3-7"
       transform="skewX(-20)"><tspan
         sodipodi:role="line"
         style="font-size:45px;line-height:1.25;fill:#483200;fill-opacity:1;stroke-width:1.29999995;stroke-miterlimit:4;stroke-dasharray:none"
         x="2402.0383"
         y="828.75751"
         id="tspan875-6-5" /><tspan
         sodipodi:role="line"
         style="font-size:44px;line-height:1.25;fill:#483200;fill-opacity:1;stroke-width:1.29999995;stroke-miterlimit:4;stroke-dasharray:none"
         x="2402.0383"
         y="828.75751"
         id="tspan895-2-9" /><tspan
         sodipodi:role="line"
         style="font-size:44px;line-height:1.25;fill:#483200;fill-opacity:1;stroke-width:1.29999995;stroke-miterlimit:4;stroke-dasharray:none"
         x="2402.0383"
         y="828.75751"
         id="tspan4769-2" /><tspan
         sodipodi:role="line"
         style="font-size:44px;line-height:1.25;fill:#000000;fill-opacity:1;stroke-width:1.29999995;stroke-miterlimit:4;stroke-dasharray:none"
         x="2402.0383"
         y="866.474"
         id="tspan799">&quot;<tspan
   style="fill:#000000;fill-opacity:1;stroke:#000000;stroke-width:1.29999995;stroke-miterlimit:4;stroke-dasharray:none;stroke-opacity:1;font-size:44px"
   id="tspan1025-8">Не</tspan> очікуй допомоги</tspan><tspan
         sodipodi:role="line"
         style="font-size:44px;line-height:1.25;fill:#000000;fill-opacity:1;stroke-width:1.29999995;stroke-miterlimit:4;stroke-dasharray:none"
         x="2402.0383"
         y="922.724"
         id="tspan207">ззовні згорнутого</tspan><tspan
         sodipodi:role="line"
         style="font-size:44px;line-height:1.25;fill:#000000;fill-opacity:1;stroke-width:1.29999995;stroke-miterlimit:4;stroke-dasharray:none"
         x="2402.0383"
         y="980.36377"
         id="tspan211">прострору...</tspan></text>
    <text
       xml:space="preserve"
       style="font-style:normal;font-variant:normal;font-weight:normal;font-stretch:normal;line-height:0%;font-family:Lavi;-inkscape-font-specification:Lavi;text-align:center;letter-spacing:0px;word-spacing:0px;text-anchor:middle;fill:#000000;fill-opacity:1;stroke:none"
       x="2228.116"
       y="354.75421"
       id="text4246-3-7-61"><tspan
         sodipodi:role="line"
         style="font-size:45px;line-height:1.25"
         x="2228.116"
         y="354.75421"
         id="tspan887-1">Ну, звісно.</tspan></text>
    <text
       xml:space="preserve"
       style="font-style:normal;font-variant:normal;font-weight:normal;font-stretch:normal;line-height:0%;font-family:Lavi;-inkscape-font-specification:Lavi;text-align:center;letter-spacing:0px;word-spacing:0px;text-anchor:middle;fill:#000000;fill-opacity:1;stroke:#000000;stroke-width:0.60000002;stroke-miterlimit:4;stroke-dasharray:none;stroke-opacity:1"
       x="2135.0286"
       y="772.58179"
       id="text4246-3-7-61-9"><tspan
         sodipodi:role="line"
         style="font-size:45px;line-height:1.25;stroke:#000000;stroke-width:0.60000002;stroke-miterlimit:4;stroke-dasharray:none;stroke-opacity:1"
         x="2135.0286"
         y="772.58179"
         id="tspan887-1-4">Ага, ось!</tspan></text>
    <text
       xml:space="preserve"
       style="font-style:normal;font-variant:normal;font-weight:normal;font-stretch:normal;line-height:0%;font-family:Lavi;-inkscape-font-specification:Lavi;text-align:center;letter-spacing:0px;word-spacing:0px;text-anchor:middle;fill:#000000;fill-opacity:1;stroke:none"
       x="2162.5898"
       y="675.17279"
       id="text4246-3-7-61-7"><tspan
         sodipodi:role="line"
         style="font-weight:bold;font-size:44px;line-height:1.25"
         x="2162.5898"
         y="675.17279"
         id="tspan887-1-8">Пфф... Очевидно!</tspan></text>
    <text
       xml:space="preserve"
       style="font-style:normal;font-variant:normal;font-weight:normal;font-stretch:normal;line-height:0%;font-family:Lavi;-inkscape-font-specification:Lavi;text-align:center;letter-spacing:0px;word-spacing:0px;text-anchor:middle;fill:#000000;fill-opacity:1;stroke:none"
       x="1611.2759"
       y="186.1888"
       id="text4246-3-7-61-4"><tspan
         sodipodi:role="line"
         style="font-size:45px;line-height:1.25"
         x="1611.2759"
         y="186.1888"
         id="tspan887-1-5">Мм...</tspan></text>
    <text
       xml:space="preserve"
       style="font-style:normal;font-variant:normal;font-weight:normal;font-stretch:normal;line-height:0%;font-family:Lavi;-inkscape-font-specification:Lavi;text-align:center;letter-spacing:0px;word-spacing:0px;text-anchor:middle;fill:#483200;fill-opacity:1;stroke:#483200;stroke-width:1.29999995;stroke-miterlimit:4;stroke-dasharray:none;stroke-opacity:1"
       x="2393.8313"
       y="998.29413"
       id="text4246-3-7-3-7-0"
       transform="skewX(-20)"
       inkscape:export-xdpi="95.800003"
       inkscape:export-ydpi="95.800003"><tspan
         sodipodi:role="line"
         style="font-size:45px;line-height:1.25;fill:#483200;fill-opacity:1;stroke:#483200;stroke-width:1.29999995;stroke-miterlimit:4;stroke-dasharray:none;stroke-opacity:1"
         x="2393.8313"
         y="1001.7819"
         id="tspan875-6-5-6" /><tspan
         sodipodi:role="line"
         style="font-size:44px;line-height:1.25;fill:#483200;fill-opacity:1;stroke:#483200;stroke-width:1.29999995;stroke-miterlimit:4;stroke-dasharray:none;stroke-opacity:1"
         x="2393.8313"
         y="1001.7819"
         id="tspan895-2-9-3" /><tspan
         sodipodi:role="line"
         style="font-size:44px;line-height:1.25;fill:#483200;fill-opacity:1;stroke:#483200;stroke-width:1.29999995;stroke-miterlimit:4;stroke-dasharray:none;stroke-opacity:1"
         x="2393.8313"
         y="1001.7819"
         id="tspan4769-2-2" /><tspan
         sodipodi:role="line"
         style="font-size:44px;line-height:1.25;fill:#000000;fill-opacity:1;stroke:#000000;stroke-width:1.29999995;stroke-miterlimit:4;stroke-dasharray:none;stroke-opacity:1"
         x="2393.8313"
         y="1039.4984"
         id="tspan5155">...ніхто не зможе</tspan><tspan
         sodipodi:role="line"
         style="font-size:44px;line-height:1.25;fill:#000000;fill-opacity:1;stroke:#000000;stroke-width:1.29999995;stroke-miterlimit:4;stroke-dasharray:none;stroke-opacity:1"
         x="2393.8313"
         y="1097.1382"
         id="tspan5159">побачити, що ти робиш!&quot;</tspan></text>
    <text
       xml:space="preserve"
       style="font-style:normal;font-variant:normal;font-weight:normal;font-stretch:normal;line-height:0%;font-family:Lavi;-inkscape-font-specification:Lavi;text-align:center;letter-spacing:0px;word-spacing:0px;text-anchor:middle;fill:#000000;fill-opacity:1;stroke:none"
       x="1940.7919"
       y="2336.2888"
       id="text4246-3-7-6-1-7-6"><tspan
         sodipodi:role="line"
         style="font-size:44px;line-height:1.25"
         x="1940.7919"
         y="2336.2888"
         id="tspan1240-3">Сподіваюся, вона зрозуміла</tspan><tspan
         sodipodi:role="line"
         style="font-size:44px;line-height:1.25"
         x="1940.7919"
         y="2392.6477"
         id="tspan235"> усі попередження, які</tspan><tspan
         sodipodi:role="line"
         style="font-size:44px;line-height:1.25"
         x="1940.7919"
         y="2447.6477"
         id="tspan1274-5">я написала в розділі про</tspan><tspan
         sodipodi:role="line"
         style="font-size:44px;line-height:1.25"
         x="1940.7919"
         y="2504.0066"
         id="tspan246">&quot;Заклинання Руйнування&quot;.</tspan></text>
    <text
       xml:space="preserve"
       style="font-style:normal;font-variant:normal;font-weight:normal;font-stretch:normal;line-height:0%;font-family:Lavi;-inkscape-font-specification:Lavi;text-align:center;letter-spacing:0px;word-spacing:0px;text-anchor:middle;fill:#000000;fill-opacity:1;stroke:none"
       x="520.18518"
       y="1450.415"
       id="text4246-3-7-61-7-7"><tspan
         sodipodi:role="line"
         style="font-size:45px;line-height:1.25"
         x="520.18518"
         y="1453.9028"
         id="tspan887-1-8-6" /><tspan
         sodipodi:role="line"
         style="font-size:45px;line-height:1.25"
         x="520.18518"
         y="1491.6193"
         id="tspan5199">Те, що треба!</tspan></text>
    <text
       xml:space="preserve"
       style="font-style:normal;font-variant:normal;font-weight:normal;font-stretch:normal;line-height:0%;font-family:Lavi;-inkscape-font-specification:Lavi;text-align:center;letter-spacing:0px;word-spacing:0px;text-anchor:middle;fill:#000000;fill-opacity:1;stroke:#000000;stroke-width:0.89999998;stroke-miterlimit:4;stroke-dasharray:none;stroke-opacity:1"
       x="396.39941"
       y="1329.3708"
       id="text4246-3-7-61-7-7-2"><tspan
         sodipodi:role="line"
         style="font-size:45px;line-height:1.25;stroke:#000000;stroke-width:0.89999998;stroke-miterlimit:4;stroke-dasharray:none;stroke-opacity:1"
         x="396.39941"
         y="1329.3708"
         id="tspan5199-4">Ніхто?</tspan></text>
    <text
       xml:space="preserve"
       style="font-style:normal;font-variant:normal;font-weight:normal;font-stretch:normal;line-height:0%;font-family:Lavi;-inkscape-font-specification:Lavi;text-align:center;letter-spacing:0px;word-spacing:0px;text-anchor:middle;fill:#000000;fill-opacity:1;stroke:none"
       x="448.13345"
       y="1402.5927"
       id="text4246-3-7-61-7-7-7"><tspan
         sodipodi:role="line"
         style="font-size:45px;line-height:1.25"
         x="448.13345"
         y="1402.5927"
         id="tspan5199-43">Серйозно!?</tspan></text>
    <flowRoot
       xml:space="preserve"
       id="flowRoot1445"
       style="fill:black;fill-opacity:1;stroke:none;font-family:sans-serif;font-style:normal;font-weight:normal;font-size:40px;line-height:1.25;letter-spacing:0px;word-spacing:0px"><flowRegion
         id="flowRegion1447"><rect
           id="rect1449"
           width="484.48764"
           height="210.16586"
           x="842.87573"
           y="129.28474" /></flowRegion><flowPara
         id="flowPara1451" /></flowRoot>  </g>
</svg>
