<?xml version="1.0" encoding="UTF-8" standalone="no"?>
<!-- Created with Inkscape (http://www.inkscape.org/) -->

<svg
   xmlns:dc="http://purl.org/dc/elements/1.1/"
   xmlns:cc="http://creativecommons.org/ns#"
   xmlns:rdf="http://www.w3.org/1999/02/22-rdf-syntax-ns#"
   xmlns:svg="http://www.w3.org/2000/svg"
   xmlns="http://www.w3.org/2000/svg"
   xmlns:xlink="http://www.w3.org/1999/xlink"
   xmlns:sodipodi="http://sodipodi.sourceforge.net/DTD/sodipodi-0.dtd"
   xmlns:inkscape="http://www.inkscape.org/namespaces/inkscape"
   id="svg2"
   version="1.1"
   inkscape:version="0.92.2 (5c3e80d, 2017-08-06)"
   width="2481"
   height="3503"
   sodipodi:docname="E23P03.svg">
  <metadata
     id="metadata8">
    <rdf:RDF>
      <cc:Work
         rdf:about="">
        <dc:format>image/svg+xml</dc:format>
        <dc:type
           rdf:resource="http://purl.org/dc/dcmitype/StillImage" />
        <dc:title />
      </cc:Work>
    </rdf:RDF>
  </metadata>
  <defs
     id="defs6">
    <filter
       style="color-interpolation-filters:sRGB"
       id="filter4375-4-1-1-1-9"
       inkscape:label="deevad outline effect">
      <feFlood
         id="feFlood4377-7-9-0-8-1"
         flood-opacity="1"
         flood-color="rgb(0,0,0)"
         result="flood" />
      <feComposite
         id="feComposite4379-3-8-8-2-77"
         in2="SourceGraphic"
         in="flood"
         operator="in"
         result="composite1" />
      <feMorphology
         id="feMorphology4393-1-0-49-8-9"
         operator="dilate"
         radius="3"
         result="result3" />
      <feComposite
         id="feComposite4385-9-5-7-0-8"
         in2="result3"
         in="SourceGraphic"
         operator="over"
         result="composite2" />
    </filter>
    <filter
       style="color-interpolation-filters:sRGB"
       id="filter4375-4-1-1-1-9-3"
       inkscape:label="deevad outline effect">
      <feFlood
         id="feFlood4377-7-9-0-8-1-6"
         flood-opacity="1"
         flood-color="rgb(0,0,0)"
         result="flood" />
      <feComposite
         id="feComposite4379-3-8-8-2-77-7"
         in2="SourceGraphic"
         in="flood"
         operator="in"
         result="composite1" />
      <feMorphology
         id="feMorphology4393-1-0-49-8-9-5"
         operator="dilate"
         radius="3"
         result="result3" />
      <feComposite
         id="feComposite4385-9-5-7-0-8-3"
         in2="result3"
         in="SourceGraphic"
         operator="over"
         result="composite2" />
    </filter>
  </defs>
  <sodipodi:namedview
     pagecolor="#ffffff"
     bordercolor="#666666"
     borderopacity="1"
     objecttolerance="10"
     gridtolerance="10"
     guidetolerance="10"
     inkscape:pageopacity="0"
     inkscape:pageshadow="2"
     inkscape:window-width="960"
     inkscape:window-height="1017"
     id="namedview4"
     showgrid="false"
     inkscape:zoom="0.49190039"
     inkscape:cx="924.90453"
     inkscape:cy="464.05984"
     inkscape:window-x="954"
     inkscape:window-y="30"
     inkscape:window-maximized="0"
     inkscape:current-layer="layer1"
     inkscape:document-rotation="0" />
  <g
     inkscape:groupmode="layer"
     id="layer2"
     inkscape:label="artwork"
     sodipodi:insensitive="true">
    <image
       sodipodi:absref="/home/nightlock/peppercarrot/webcomics/ep23_Take-a-Chance/lang/kr/../gfx_Pepper-and-Carrot_by-David-Revoy_E23P03.png"
       xlink:href="../gfx_Pepper-and-Carrot_by-David-Revoy_E23P03.png"
       y="0"
       x="0"
       id="image10"
       height="3503"
       width="2481" />
  </g>
  <g
     inkscape:groupmode="layer"
     id="layer3"
     inkscape:label="speechbubbles">
    <path
       style="fill:#ffffff;stroke:none;stroke-width:1"
       d="m 130.88813,2940.3745 c -0.39797,-117.3638 227.09889,-131.8745 311.66201,-131.6177 114.39876,0.3474 335.22073,-3.8656 391.56785,40.6031 85.5993,67.5544 67.37444,146.8484 37.57383,174.2782 -39.9011,36.7271 -104.33949,31.5478 -190.19341,45.9583 -106.60475,17.8933 -366.11723,4.8417 -433.26752,-3.7516 -53.20246,-6.8083 -116.94479,-8.1065 -117.34276,-125.4703 z"
       id="path3100"
       inkscape:connector-curvature="0"
       sodipodi:nodetypes="zsssssz" />
    <path
       style="color:#000000;display:inline;overflow:visible;visibility:visible;fill:#ffffff;fill-opacity:1;fill-rule:nonzero;stroke:none;stroke-width:1px;marker:none;enable-background:accumulate"
       d="m 842.55945,2966.8035 c 57.3052,17.7871 114.43744,34.6742 149.48328,-5.5841 -24.12635,56.7783 -126.22584,48.3612 -173.00855,34.6012 -39.73498,-11.6871 23.52527,-29.0171 23.52527,-29.0171 z"
       id="path4480"
       inkscape:connector-curvature="0"
       sodipodi:nodetypes="ccsc" />
    <path
       style="fill:#ffffff;stroke:none"
       d="m 654.52742,2783.113 c -4.14136,39.4082 -81.95291,51.1956 -137.57411,52.0493 -94.49029,4.3226 -190.51285,0.7922 -283.21484,-10.4841 -59.95645,-10.0272 -90.6481,-60.2095 -42.08866,-86.4279 50.02157,-20.5932 115.20374,-19.8303 173.58164,-24.4984 82.68356,-3.211 168.52245,-0.7859 246.64153,16.4886 34.86358,9.51 47.58592,31.5955 42.65444,52.8725 z"
       id="path3100-2"
       inkscape:connector-curvature="0" />
    <path
       style="fill:#ffffff;stroke:none;stroke-width:1"
       d="m 154.72685,2690.2278 c -0.65689,-16.8815 20.54278,-63.5857 111.40508,-58.2124 90.86229,5.3735 118.90211,24.6033 120.88635,54.6302 3.13901,47.5016 -44.98932,59.0112 -113.76361,60.8606 -70.89885,1.9065 -114.65043,-14.5794 -118.52782,-57.2784 z"
       id="path3280"
       inkscape:connector-curvature="0"
       sodipodi:nodetypes="csssc" />
    <text
       id="text3364"
       y="2709.0803"
       x="268.01688"
       style="font-style:normal;font-variant:normal;font-weight:normal;font-stretch:normal;line-height:0%;font-family:'Nanum Pen Script OTF';-inkscape-font-specification:'Nanum Pen Script OTF';text-align:center;letter-spacing:0px;word-spacing:0px;text-anchor:middle;fill:#000000;fill-opacity:1;stroke:#000000;stroke-width:0.58772039;stroke-miterlimit:4;stroke-dasharray:none;stroke-opacity:1"
       xml:space="preserve"><tspan
         id="tspan3366"
         y="2709.0803"
         x="276.17093"
         style="font-style:normal;font-variant:normal;font-weight:normal;font-stretch:normal;font-size:58.38980103px;line-height:1.25;font-family:'Nanum Pen Script OTF';-inkscape-font-specification:'Nanum Pen Script OTF';stroke:#000000;stroke-width:0.58772039;stroke-miterlimit:4;stroke-dasharray:none;stroke-opacity:1"
         sodipodi:role="line">반가워요! </tspan></text>
    <text
       id="text3368"
       y="2791.085"
       x="409.10159"
       style="font-style:normal;font-variant:normal;font-weight:normal;font-stretch:normal;line-height:0%;font-family:'Nanum Pen Script OTF';-inkscape-font-specification:'Nanum Pen Script OTF';text-align:center;letter-spacing:0px;word-spacing:0px;text-anchor:middle;fill:#000000;fill-opacity:1;stroke:none"
       xml:space="preserve"><tspan
         id="tspan3372"
         y="2791.085"
         x="417.08078"
         style="font-style:normal;font-variant:normal;font-weight:normal;font-stretch:normal;font-size:57.13774872px;line-height:1.25;font-family:'Nanum Pen Script OTF';-inkscape-font-specification:'Nanum Pen Script OTF'"
         sodipodi:role="line">제 소개를 해 드릴게요: </tspan></text>
  </g>
  <g
     inkscape:groupmode="layer"
     id="layer1"
     inkscape:label="txt">
    <text
       transform="matrix(0.68821378,-0.92473293,0.26943669,1.5297196,344.67896,-1211.4916)"
       id="text3374"
       y="1584.5073"
       x="787.65729"
       style="font-style:normal;font-variant:normal;font-weight:normal;font-stretch:normal;line-height:0%;font-family:'Nanum Pen Script OTF';-inkscape-font-specification:'Nanum Pen Script OTF';letter-spacing:0px;word-spacing:0px;fill:#000000;fill-opacity:1;stroke:#ffffff;stroke-width:1.05287826;stroke-miterlimit:4;stroke-dasharray:none;stroke-opacity:1;filter:url(#filter4375-4-1-1-1-9)"
       xml:space="preserve"><tspan
         style="font-style:normal;font-variant:normal;font-weight:normal;font-stretch:normal;font-size:70px;line-height:100%;font-family:'Nanum Pen Script OTF';-inkscape-font-specification:'Nanum Pen Script OTF';letter-spacing:4.88345098px;fill:#ffffff;stroke:#ffffff;stroke-width:1.05287826;stroke-miterlimit:4;stroke-dasharray:none;stroke-opacity:1"
         y="1584.5073"
         x="787.65729"
         id="tspan3376"
         sodipodi:role="line"><tspan
           id="tspan3382"
           style="font-style:normal;font-variant:normal;font-weight:normal;font-stretch:normal;font-size:80.40014648px;line-height:100%;font-family:'Nanum Pen Script OTF';-inkscape-font-specification:'Nanum Pen Script OTF';letter-spacing:4.88345098px;stroke:#ffffff;stroke-width:1.05287826;stroke-miterlimit:4;stroke-dasharray:none;stroke-opacity:1">통!</tspan></tspan></text>
    <text
       id="text3384"
       y="2905.8491"
       x="509.78183"
       style="font-style:normal;font-variant:normal;font-weight:normal;font-stretch:normal;line-height:0%;font-family:'Nanum Pen Script OTF';-inkscape-font-specification:'Nanum Pen Script OTF';text-align:center;letter-spacing:0px;word-spacing:0px;text-anchor:middle;fill:#000000;fill-opacity:1;stroke:none"
       xml:space="preserve"><tspan
         id="tspan3386"
         y="2905.8491"
         x="509.78183"
         style="font-style:normal;font-variant:normal;font-weight:normal;font-stretch:normal;font-size:60.36126328px;line-height:100%;font-family:'Nanum Pen Script OTF';-inkscape-font-specification:'Nanum Pen Script OTF'"
         sodipodi:role="line">전 성공의 요정입니다.</tspan><tspan
         y="2966.2104"
         x="509.78183"
         style="font-style:normal;font-variant:normal;font-weight:normal;font-stretch:normal;font-size:60.36126328px;line-height:100%;font-family:'Nanum Pen Script OTF';-inkscape-font-specification:'Nanum Pen Script OTF'"
         sodipodi:role="line"
         id="tspan3396">낮이건 밤이건, 비가 오건 눈이 오건</tspan><tspan
         y="3026.5715"
         x="518.21118"
         style="font-style:normal;font-variant:normal;font-weight:normal;font-stretch:normal;font-size:60.36126328px;line-height:100%;font-family:'Nanum Pen Script OTF';-inkscape-font-specification:'Nanum Pen Script OTF'"
         sodipodi:role="line"
         id="tspan3400">언제든 불러만 주세요!* </tspan></text>
  </g>
</svg>
